name,stempel,ground truth
CATII-H-06754A.jpg,35,G?
CATII-H-05022A.jpg,16,G?
CATII-H-04751A.jpg,16,G?
CATII-H-04976A.jpg,33,G?
CATII-H-08185A.jpg,26,G?
CATII-H-06342A.jpg,28,G?
CATII-H-07187A.jpg,16,G?
CATII-H-05569A.jpg,27,G?
CATII-H-15343A.jpg,10,YA
CATII-H-08911A.jpg,9,YA
CATII-H-11227A.jpg,10,YA
CATII-H-06451A.jpg,35,Z?
CATII-H-08775A.jpg,35,Z?
CATII-H-15299A.jpg,16,G
CATII-H-05281A.jpg,27,G
CATII-H-12277A.jpg,16,G
CATII-H-24038A.jpg,30,G
CATII-H-11044A.jpg,29,G
CATII-H-13724A.jpg,29,G
CATII-H-00315A.jpg,16,G
CATII-H-06697A.jpg,29,G
CATII-H-15424A.jpg,17,G
CATII-H-24332A.jpg,27,G
CATII-H-07181A.jpg,27,G
CATII-H-23814A.jpg,27,G
CATII-H-09765A.jpg,26,G
CATII-H-16036A.jpg,34,G
CATII-H-16011A.jpg,17,G
CATII-H-08717A.jpg,17,G
CATII-H-20259A.jpg,26,G
CATII-H-06508A.jpg,17,G
CATII-H-23123A.jpg,17,G
CATII-H-16425A.jpg,29,G
CATII-H-11231A.jpg,28,?
CATII-H-12447A.jpg,34,?
CATII-H-16400A.jpg,9,?
CATII-H-05064A.jpg,27,?
CATII-H-04677A.jpg,27,U
CATII-H-15188A.jpg,27,MA
CATII-H-06401A.jpg,34,MA
CATII-H-16647A.jpg,32,MA
CATII-H-05163A.jpg,20,D
CATII-H-12029A.jpg,25,D
CATII-H-18956A.jpg,20,D
CATII-H-11652A.jpg,20,D
CATII-H-14040A.jpg,25,D
CATII-H-06482A.jpg,20,D
CATII-H-11094A.jpg,25,D
CATII-H-23445A.jpg,20,D
CATII-H-08604A.jpg,20,D
CATII-H-17093A.jpg,20,D
CATII-H-18863A.jpg,20,D
CATII-H-11689A.jpg,20,D
CATII-H-20221A.jpg,20,D
CATII-H-09076A.jpg,20,D
CATII-H-18685A.jpg,20,D
CATII-H-18784A.jpg,20,D
CATII-H-14291A.jpg,20,D
CATII-H-05799A.jpg,20,D
CATII-H-10193A.jpg,20,D
CATII-H-12281A.jpg,20,D
CATII-H-05683A.jpg,20,D
CATII-H-10798A.jpg,20,D
CATII-H-07357A.jpg,20,D
CATII-H-06521A.jpg,25,D
CATII-H-07019A.jpg,20,D
CATII-H-09458A.jpg,20,D
CATII-H-13463A.jpg,20,D
CATII-H-07848A.jpg,20,D
CATII-H-09590A.jpg,20,D
CATII-H-08076A.jpg,25,D
CATII-H-17365A.jpg,20,D
CATII-H-08253A.jpg,26,D
CATII-H-05790A.jpg,25,D
CATII-H-09838A.jpg,20,D
CATII-H-20365A.jpg,20,D
CATII-H-24421A.jpg,20,D
CATII-H-11251A.jpg,20,D
CATII-H-19415A.jpg,25,D
CATII-H-13681A.jpg,25,D
CATII-H-23280A.jpg,25,AA
CATII-H-07211A.jpg,26,AA
CATII-H-06512A.jpg,26,AA
CATII-H-24048A.jpg,26,AA
CATII-H-23915A.jpg,26,AA
CATII-H-06217A.jpg,26,AA
CATII-H-18957A.jpg,26,AA
CATII-H-24022A.jpg,13,I
CATII-H-24051A.jpg,13,I
CATII-H-13908A.jpg,14,I
CATII-H-05150A.jpg,13,I
CATII-H-15114A.jpg,14,I
CATII-H-18771A.jpg,14,I
CATII-H-12960A.jpg,13,I
CATII-H-10385A.jpg,13,I
CATII-H-04270A.jpg,14,I
CATII-H-16184A.jpg,13,I
CATII-H-04525A.jpg,13,I
CATII-H-16481A.jpg,13,I
CATII-H-16332A.jpg,13,I
CATII-H-12899A.jpg,13,I
CATII-H-05706A.jpg,14,I
CATII-H-16241A.jpg,14,I
CATII-H-14739A.jpg,13,I
CATII-H-12743A.jpg,13,I
CATII-H-05132A.jpg,13,I
CATII-H-04802A.jpg,13,I
CATII-H-10294A.jpg,14,I
CATII-H-17662A.jpg,13,I
CATII-H-05173A.jpg,13,I
CATII-H-18903A.jpg,13,I
CATII-H-04769A.jpg,13,I
CATII-H-15391A.jpg,13,I
CATII-H-06157A.jpg,13,I
CATII-H-05069A.jpg,13,I
CATII-H-01669A.jpg,13,I
CATII-H-19156A.jpg,13,I
CATII-H-05191A.jpg,13,I
CATII-H-04887A.jpg,13,I
CATII-H-06025A.jpg,36,S
CATII-H-13028A.jpg,36,S
CATII-H-07118A.jpg,36,S
CATII-H-09496A.jpg,35,S
CATII-H-16016A.jpg,36,S
CATII-H-23615A.jpg,36,S
CATII-H-06614A.jpg,36,S
CATII-H-09667A.jpg,36,S
CATII-H-11203A.jpg,36,S
CATII-H-09341A.jpg,36,S
CATII-H-14800A.jpg,36,S
CATII-H-09598A.jpg,36,S
CATII-H-15258A.jpg,36,S
CATII-H-16326A.jpg,36,S
CATII-H-06467A.jpg,36,S
CATII-H-05095A.jpg,36,S
CATII-H-05703A.jpg,36,S
CATII-H-10397A.jpg,36,S
CATII-H-04297A.jpg,36,S
CATII-H-23271A.jpg,9,HB
CATII-H-22904A.jpg,10,HB
CATII-H-18285A.jpg,16,HB
CATII-H-16358A.jpg,31,B
CATII-H-10424A.jpg,30,B
CATII-H-17544A.jpg,31,B
CATII-H-15914A.jpg,31,B
CATII-H-08745A.jpg,31,B
CATII-H-13440A.jpg,31,B
CATII-H-18809A.jpg,31,B
CATII-H-11358A.jpg,28,B
CATII-H-01183A.jpg,31,B
CATII-H-13030A.jpg,31,B
CATII-H-14702A.jpg,30,B
CATII-H-19229A.jpg,30,B
CATII-H-00237A.jpg,31,B
CATII-H-15878A.jpg,31,B
CATII-H-07844A.jpg,30,B
CATII-H-24400A.jpg,31,B
CATII-H-14107A.jpg,28,B
CATII-H-18951A.jpg,30,B
CATII-H-20276A.jpg,31,B
CATII-H-12980A.jpg,31,B
CATII-H-22335A.jpg,31,B
CATII-H-09091A.jpg,10,E?
CATII-H-09669A.jpg,32,E?
CATII-H-24521A.jpg,10,E?
CATII-H-24063A.jpg,9,E?
CATII-H-21488A.jpg,29,H?
CATII-H-09987A.jpg,28,H?
CATII-H-09042A.jpg,16,H?
CATII-H-06435A.jpg,34,H?
CATII-H-47333A.jpg,27,Unlabeled 
CATII-H-62647A.jpg,26,Unlabeled 
CATII-H-46780A.jpg,28,Unlabeled 
CATII-H-30185A.jpg,32,Unlabeled 
CATII-H-38227A.jpg,26,Unlabeled 
CATII-H-30470A.jpg,28,Unlabeled 
CATII-H-33417A.jpg,15,Unlabeled 
CATII-H-58350A.jpg,34,Unlabeled 
CATII-H-61594A.jpg,9,Unlabeled 
CATII-H-30524A.jpg,15,Unlabeled 
CATII-H-44140A.jpg,12,Unlabeled 
CATII-H-47769A.jpg,29,Unlabeled 
CATII-H-32241A.jpg,16,Unlabeled 
CATII-H-34103A.jpg,29,Unlabeled 
CATII-H-47863A.jpg,24,Unlabeled 
CATII-H-31969A.jpg,12,Unlabeled 
CATII-H-30035A.jpg,3,Unlabeled 
CATII-H-26022A.jpg,12,Unlabeled 
CATII-H-30358A.jpg,17,Unlabeled 
CATII-H-32894A.jpg,16,Unlabeled 
CATII-H-30976A.jpg,30,Unlabeled 
CATII-H-46863A.jpg,26,Unlabeled 
CATII-H-37959A.jpg,21,Unlabeled 
CATII-H-30293A.jpg,29,Unlabeled 
CATII-H-34285A.jpg,34,Unlabeled 
CATII-H-59708A.jpg,28,Unlabeled 
CATII-H-60978A.jpg,32,Unlabeled 
CATII-H-47134A.jpg,31,Unlabeled 
CATII-H-33897A.jpg,29,Unlabeled 
CATII-H-12778A.jpg,34,Unlabeled 
CATII-H-34781A.jpg,21,Unlabeled 
CATII-H-31439A.jpg,29,Unlabeled 
CATII-H-47708A.jpg,13,Unlabeled 
CATII-H-34257A.jpg,5,Unlabeled 
CATII-H-33297A.jpg,24,Unlabeled 
CATII-H-30574A.jpg,6,Unlabeled 
CATII-H-29681A.jpg,14,Unlabeled 
CATII-H-25882A.jpg,16,Unlabeled 
CATII-H-47948A.jpg,32,Unlabeled 
CATII-H-34303A.jpg,12,Unlabeled 
CATII-H-48231A.jpg,20,Unlabeled 
CATII-H-32060A.jpg,34,Unlabeled 
CATII-H-46683A.jpg,10,Unlabeled 
CATII-H-32069A.jpg,28,Unlabeled 
CATII-H-31453A.jpg,1,Unlabeled 
CATII-H-11067A.jpg,28,Unlabeled 
CATII-H-46296A.jpg,12,Unlabeled 
CATII-H-41083A.jpg,14,Unlabeled 
CATII-H-35664A.jpg,26,Unlabeled 
CATII-H-55036A.jpg,29,Unlabeled 
CATII-H-47502A.jpg,25,Unlabeled 
CATII-H-36320A.jpg,29,Unlabeled 
CATII-H-46375A.jpg,10,Unlabeled 
CATII-H-56869A.jpg,8,Unlabeled 
CATII-H-47079A.jpg,32,Unlabeled 
CATII-H-34463A.jpg,17,Unlabeled 
CATII-H-29665A.jpg,10,Unlabeled 
CATII-H-30597A.jpg,16,Unlabeled 
CATII-H-46831A.jpg,12,Unlabeled 
CATII-H-33532A.jpg,9,Unlabeled 
CATII-H-25061A.jpg,27,Unlabeled 
CATII-H-46821A.jpg,29,Unlabeled 
CATII-H-33563A.jpg,10,Unlabeled 
CATII-H-61466A.jpg,21,Unlabeled 
CATII-H-60968A.jpg,16,Unlabeled 
CATII-H-47032A.jpg,9,Unlabeled 
CATII-H-34630A.jpg,20,Unlabeled 
CATII-H-48227A.jpg,32,Unlabeled 
CATII-H-36840A.jpg,15,Unlabeled 
CATII-H-31458A.jpg,9,Unlabeled 
CATII-H-29954A.jpg,1,Unlabeled 
CATII-H-27134A.jpg,27,Unlabeled 
CATII-H-31177A.jpg,9,Unlabeled 
CATII-H-32438A.jpg,12,Unlabeled 
CATII-H-25030A.jpg,23,Unlabeled 
CATII-H-09297A.jpg,16,Unlabeled 
CATII-H-38201A.jpg,16,Unlabeled 
CATII-H-30800A.jpg,34,Unlabeled 
CATII-H-47440A.jpg,29,Unlabeled 
CATII-H-16733A.jpg,28,Unlabeled 
CATII-H-33535A.jpg,15,Unlabeled 
CATII-H-33796A.jpg,30,Unlabeled 
CATII-H-30573A.jpg,29,Unlabeled 
CATII-H-27213A.jpg,3,Unlabeled 
CATII-H-36046A.jpg,14,Unlabeled 
CATII-H-46830A.jpg,8,Unlabeled 
CATII-H-32634A.jpg,30,Unlabeled 
CATII-H-46564A.jpg,27,Unlabeled 
CATII-H-61571A.jpg,10,Unlabeled 
CATII-H-61435A.jpg,10,Unlabeled 
CATII-H-30959A.jpg,21,Unlabeled 
CATII-H-27396A.jpg,4,Unlabeled 
CATII-H-34168A.jpg,30,Unlabeled 
CATII-H-30588A.jpg,34,Unlabeled 
CATII-H-29598A.jpg,33,Unlabeled 
CATII-H-33132A.jpg,33,Unlabeled 
CATII-H-36668A.jpg,27,Unlabeled 
CATII-H-30270A.jpg,32,Unlabeled 
CATII-H-25989A.jpg,28,Unlabeled 
CATII-H-33642A.jpg,14,Unlabeled 
CATII-H-33862A.jpg,11,Unlabeled 
CATII-H-46840A.jpg,2,Unlabeled 
CATII-H-46400A.jpg,15,Unlabeled 
CATII-H-35210A.jpg,13,Unlabeled 
CATII-H-35524A.jpg,28,Unlabeled 
CATII-H-30107A.jpg,31,Unlabeled 
CATII-H-63416A.jpg,6,Unlabeled 
CATII-H-34448A.jpg,16,Unlabeled 
CATII-H-46576A.jpg,21,Unlabeled 
CATII-H-46627A.jpg,14,Unlabeled 
CATII-H-30053A.jpg,12,Unlabeled 
CATII-H-33110A.jpg,36,Unlabeled 
CATII-H-27503A.jpg,12,Unlabeled 
CATII-H-44005A.jpg,21,Unlabeled 
CATII-H-32222A.jpg,13,Unlabeled 
CATII-H-33484A.jpg,20,Unlabeled 
CATII-H-61527A.jpg,20,Unlabeled 
CATII-H-32315A.jpg,15,Unlabeled 
CATII-H-31943A.jpg,32,Unlabeled 
CATII-H-32780A.jpg,12,Unlabeled 
CATII-H-29641A.jpg,24,Unlabeled 
CATII-H-37192A.jpg,21,Unlabeled 
CATII-H-29086A.jpg,12,Unlabeled 
CATII-H-33212A.jpg,17,Unlabeled 
CATII-H-30636A.jpg,2,Unlabeled 
CATII-H-15099A.jpg,28,Unlabeled 
CATII-H-61142A.jpg,32,Unlabeled 
CATII-H-25636A.jpg,20,Unlabeled 
CATII-H-32178A.jpg,23,Unlabeled 
CATII-H-48184A.jpg,28,Unlabeled 
CATII-H-42902A.jpg,29,Unlabeled 
CATII-H-34110A.jpg,27,Unlabeled 
CATII-H-47619A.jpg,14,Unlabeled 
CATII-H-48332A.jpg,28,Unlabeled 
CATII-H-32788A.jpg,13,Unlabeled 
CATII-H-33529A.jpg,12,Unlabeled 
CATII-H-46283A.jpg,28,Unlabeled 
CATII-H-51455A.jpg,9,Unlabeled 
CATII-H-48174A.jpg,30,Unlabeled 
CATII-H-48245A.jpg,27,Unlabeled 
CATII-H-60540A.jpg,10,Unlabeled 
CATII-H-52166A.jpg,2,Unlabeled 
CATII-H-64828A.jpg,11,Unlabeled 
CATII-H-34074A.jpg,21,Unlabeled 
CATII-H-25156A.jpg,34,Unlabeled 
CATII-H-47432A.jpg,29,Unlabeled 
CATII-H-38135A.jpg,4,Unlabeled 
CATII-H-36943A.jpg,3,Unlabeled 
CATII-H-32678A.jpg,14,Unlabeled 
CATII-H-32267A.jpg,27,Unlabeled 
CATII-H-47431A.jpg,35,Unlabeled 
CATII-H-25433A.jpg,28,Unlabeled 
CATII-H-24858A.jpg,8,Unlabeled 
CATII-H-25051A.jpg,10,Unlabeled 
CATII-H-58035A.jpg,29,Unlabeled 
CATII-H-30073A.jpg,9,Unlabeled 
CATII-H-33135A.jpg,25,Unlabeled 
CATII-H-34518A.jpg,12,Unlabeled 
CATII-H-29956A.jpg,4,Unlabeled 
CATII-H-30158A.jpg,29,Unlabeled 
CATII-H-33221A.jpg,8,Unlabeled 
CATII-H-33251A.jpg,12,Unlabeled 
CATII-H-07569A.jpg,32,Unlabeled 
CATII-H-32528A.jpg,36,Unlabeled 
CATII-H-36796A.jpg,28,Unlabeled 
CATII-H-46849A.jpg,35,Unlabeled 
CATII-H-47382A.jpg,12,Unlabeled 
CATII-H-32215A.jpg,14,Unlabeled 
CATII-H-41854A.jpg,17,Unlabeled 
CATII-H-30280A.jpg,30,Unlabeled 
CATII-H-27493A.jpg,14,Unlabeled 
CATII-H-34675A.jpg,20,Unlabeled 
CATII-H-30045A.jpg,34,Unlabeled 
CATII-H-61856A.jpg,17,Unlabeled 
CATII-H-33556A.jpg,20,Unlabeled 
CATII-H-46816A.jpg,12,Unlabeled 
CATII-H-34262A.jpg,24,Unlabeled 
CATII-H-30644A.jpg,14,Unlabeled 
CATII-H-30258A.jpg,19,Unlabeled 
CATII-H-34077A.jpg,15,Unlabeled 
CATII-H-30126A.jpg,21,Unlabeled 
CATII-H-25399A.jpg,1,Unlabeled 
CATII-H-48017A.jpg,27,Unlabeled 
CATII-H-32772A.jpg,14,Unlabeled 
CATII-H-61452A.jpg,30,Unlabeled 
CATII-H-54206A.jpg,32,Unlabeled 
CATII-H-33053A.jpg,20,Unlabeled 
CATII-H-29280A.jpg,34,Unlabeled 
CATII-H-33904A.jpg,32,Unlabeled 
CATII-H-30047A.jpg,32,Unlabeled 
CATII-H-30271A.jpg,13,Unlabeled 
CATII-H-24249A.jpg,34,Unlabeled 
CATII-H-33553A.jpg,15,Unlabeled 
CATII-H-61154A.jpg,19,Unlabeled 
CATII-H-32034A.jpg,21,Unlabeled 
CATII-H-33349A.jpg,3,Unlabeled 
CATII-H-60562A.jpg,34,Unlabeled 
CATII-H-61586A.jpg,10,Unlabeled 
CATII-H-37546A.jpg,1,Unlabeled 
CATII-H-30786A.jpg,13,Unlabeled 
CATII-H-30593A.jpg,15,Unlabeled 
CATII-H-29794A.jpg,7,Unlabeled 
CATII-H-35666A.jpg,3,Unlabeled 
CATII-H-29545A.jpg,17,Unlabeled 
CATII-H-29921A.jpg,16,Unlabeled 
CATII-H-54248A.jpg,23,Unlabeled 
CATII-H-32552A.jpg,1,Unlabeled 
CATII-H-08007A.jpg,9,Unlabeled 
CATII-H-12918A.jpg,26,Unlabeled 
CATII-H-33489A.jpg,29,Unlabeled 
CATII-H-37563A.jpg,21,Unlabeled 
CATII-H-34171A.jpg,8,Unlabeled 
CATII-H-36936A.jpg,27,Unlabeled 
CATII-H-19637A.jpg,12,Unlabeled 
CATII-H-33403A.jpg,28,Unlabeled 
CATII-H-39403A.jpg,11,Unlabeled 
CATII-H-33207A.jpg,30,Unlabeled 
CATII-H-48931A.jpg,12,Unlabeled 
CATII-H-27759A.jpg,21,Unlabeled 
CATII-C-00285A.jpg,7,Unlabeled 
CATII-H-34063A.jpg,28,Unlabeled 
CATII-H-48859A.jpg,26,Unlabeled 
CATII-H-30062A.jpg,34,Unlabeled 
CATII-H-27108A.jpg,32,Unlabeled 
CATII-H-33161A.jpg,19,Unlabeled 
CATII-H-61463A.jpg,14,Unlabeled 
CATII-H-29819A.jpg,21,Unlabeled 
CATII-H-49364A.jpg,2,Unlabeled 
CATII-H-25144A.jpg,32,Unlabeled 
CATII-H-30430A.jpg,27,Unlabeled 
CATII-H-33342A.jpg,17,Unlabeled 
CATII-H-08532A.jpg,12,Unlabeled 
CATII-H-33867A.jpg,28,Unlabeled 
CATII-H-28356A.jpg,28,Unlabeled 
CATII-H-28337A.jpg,13,Unlabeled 
CATII-H-32041A.jpg,14,Unlabeled 
CATII-H-32544A.jpg,33,Unlabeled 
CATII-H-31179A.jpg,13,Unlabeled 
CATII-H-33715A.jpg,17,Unlabeled 
CATII-H-46828A.jpg,10,Unlabeled 
CATII-H-33376A.jpg,25,Unlabeled 
CATII-H-47638A.jpg,4,Unlabeled 
CATII-H-46325A.jpg,14,Unlabeled 
CATII-H-33492A.jpg,23,Unlabeled 
CATII-H-33845A.jpg,35,Unlabeled 
CATII-H-46464A.jpg,12,Unlabeled 
CATII-H-46633A.jpg,14,Unlabeled 
CATII-H-27286A.jpg,17,Unlabeled 
CATII-H-46836A.jpg,10,Unlabeled 
CATII-H-33406A.jpg,33,Unlabeled 
CATII-H-32174A.jpg,3,Unlabeled 
CATII-H-29668A.jpg,28,Unlabeled 
CATII-H-30134A.jpg,19,Unlabeled 
CATII-H-46958A.jpg,20,Unlabeled 
CATII-H-28308A.jpg,20,Unlabeled 
CATII-H-31643A.jpg,9,Unlabeled 
CATII-H-27147A.jpg,17,Unlabeled 
CATII-H-32551A.jpg,14,Unlabeled 
CATII-H-33173A.jpg,19,Unlabeled 
CATII-H-47643A.jpg,31,Unlabeled 
CATII-H-35214A.jpg,17,Unlabeled 
CATII-H-48270A.jpg,21,Unlabeled 
CATII-H-40360A.jpg,5,Unlabeled 
CATII-H-47477A.jpg,2,Unlabeled 
CATII-H-46623A.jpg,21,Unlabeled 
CATII-H-34319A.jpg,11,Unlabeled 
CATII-H-46659A.jpg,23,Unlabeled 
CATII-H-34504A.jpg,2,Unlabeled 
CATII-H-48008A.jpg,28,Unlabeled 
CATII-H-47667A.jpg,17,Unlabeled 
CATII-H-46309A.jpg,13,Unlabeled 
CATII-H-30617A.jpg,9,Unlabeled 
CATII-H-25784A.jpg,31,Unlabeled 
CATII-H-31759A.jpg,13,Unlabeled 
CATII-H-45119A.jpg,16,Unlabeled 
CATII-H-61039A.jpg,35,Unlabeled 
CATII-H-30033A.jpg,17,Unlabeled 
CATII-H-27216A.jpg,34,Unlabeled 
CATII-H-34254A.jpg,28,Unlabeled 
CATII-H-16421A.jpg,28,Unlabeled 
CATII-H-34539A.jpg,24,Unlabeled 
CATII-H-61176A.jpg,25,Unlabeled 
CATII-H-30804A.jpg,36,Unlabeled 
CATII-H-34405A.jpg,28,Unlabeled 
CATII-H-29290A.jpg,1,Unlabeled 
CATII-H-45961A.jpg,28,Unlabeled 
CATII-H-24850A.jpg,16,Unlabeled 
CATII-H-31171A.jpg,21,Unlabeled 
CATII-H-46742A.jpg,8,Unlabeled 
CATII-H-31303A.jpg,34,Unlabeled 
CATII-H-33636A.jpg,15,Unlabeled 
CATII-H-48072A.jpg,28,Unlabeled 
CATII-H-24766A.jpg,1,Unlabeled 
CATII-H-33219A.jpg,14,Unlabeled 
CATII-H-29039A.jpg,16,Unlabeled 
CATII-H-25511A.jpg,26,Unlabeled 
CATII-H-63712A.jpg,14,Unlabeled 
CATII-H-37623A.jpg,26,Unlabeled 
CATII-H-29611A.jpg,10,Unlabeled 
CATII-H-29127A.jpg,23,Unlabeled 
CATII-H-39257A.jpg,31,Unlabeled 
CATII-H-61155A.jpg,16,Unlabeled 
CATII-H-33157A.jpg,14,Unlabeled 
CATII-H-25767A.jpg,9,Unlabeled 
CATII-H-31819A.jpg,14,Unlabeled 
CATII-H-30041A.jpg,30,Unlabeled 
CATII-H-29778A.jpg,27,Unlabeled 
CATII-H-34353A.jpg,7,Unlabeled 
CATII-H-46422A.jpg,16,Unlabeled 
CATII-H-61635A.jpg,10,Unlabeled 
CATII-H-32270A.jpg,1,Unlabeled 
CATII-H-30781A.jpg,4,Unlabeled 
CATII-H-54036A.jpg,17,Unlabeled 
CATII-H-48225A.jpg,32,Unlabeled 
CATII-H-37885A.jpg,10,Unlabeled 
CATII-H-56661A.jpg,17,Unlabeled 
CATII-H-10700A.jpg,32,Unlabeled 
CATII-H-25928A.jpg,14,Unlabeled 
CATII-H-32230A.jpg,9,Unlabeled 
CATII-H-29053A.jpg,34,Unlabeled 
CATII-H-29940A.jpg,14,Unlabeled 
CATII-H-33530A.jpg,25,Unlabeled 
CATII-H-35893A.jpg,35,Unlabeled 
CATII-H-23206A.jpg,29,Unlabeled 
CATII-H-36998A.jpg,29,Unlabeled 
CATII-H-07125A.jpg,15,Unlabeled 
CATII-H-61445A.jpg,14,Unlabeled 
CATII-H-29867A.jpg,29,Unlabeled 
CATII-H-48020A.jpg,6,Unlabeled 
CATII-H-25357A.jpg,27,Unlabeled 
CATII-H-29082A.jpg,30,Unlabeled 
CATII-H-31623A.jpg,9,Unlabeled 
CATII-H-10589A.jpg,9,Unlabeled 
CATII-H-32048A.jpg,12,Unlabeled 
CATII-H-29879A.jpg,15,Unlabeled 
CATII-H-30946A.jpg,6,Unlabeled 
CATII-H-29801A.jpg,20,Unlabeled 
CATII-H-30269A.jpg,34,Unlabeled 
CATII-H-32220A.jpg,15,Unlabeled 
CATII-H-33885A.jpg,8,Unlabeled 
CATII-H-46677A.jpg,19,Unlabeled 
CATII-H-33873A.jpg,9,Unlabeled 
CATII-H-47770A.jpg,9,Unlabeled 
CATII-H-37457A.jpg,28,Unlabeled 
CATII-H-31141A.jpg,16,Unlabeled 
CATII-H-30013A.jpg,12,Unlabeled 
CATII-H-57538A.jpg,14,Unlabeled 
CATII-H-30252A.jpg,28,Unlabeled 
CATII-H-48363A.jpg,16,Unlabeled 
CATII-H-28341A.jpg,12,Unlabeled 
CATII-H-32151A.jpg,23,Unlabeled 
CATII-H-46414A.jpg,32,Unlabeled 
CATII-H-61483A.jpg,29,Unlabeled 
CATII-H-43516A.jpg,28,Unlabeled 
CATII-H-61174A.jpg,12,Unlabeled 
CATII-H-47733A.jpg,21,Unlabeled 
CATII-H-39441A.jpg,4,Unlabeled 
CATII-H-37872A.jpg,29,Unlabeled 
CATII-H-29725A.jpg,21,Unlabeled 
CATII-H-30676A.jpg,6,Unlabeled 
CATII-H-25225A.jpg,29,Unlabeled 
CATII-H-29609A.jpg,30,Unlabeled 
CATII-H-30436A.jpg,26,Unlabeled 
CATII-H-30737A.jpg,19,Unlabeled 
CATII-H-30153A.jpg,2,Unlabeled 
CATII-H-47506A.jpg,1,Unlabeled 
CATII-H-32358A.jpg,26,Unlabeled 
CATII-H-37503A.jpg,28,Unlabeled 
CATII-H-30690A.jpg,20,Unlabeled 
CATII-H-46279A.jpg,27,Unlabeled 
CATII-H-36787A.jpg,9,Unlabeled 
CATII-H-46660A.jpg,29,Unlabeled 
CATII-H-33247A.jpg,9,Unlabeled 
CATII-H-29914A.jpg,34,Unlabeled 
CATII-H-47895A.jpg,36,Unlabeled 
CATII-H-32692A.jpg,20,Unlabeled 
CATII-H-37693A.jpg,32,Unlabeled 
CATII-H-36839A.jpg,27,Unlabeled 
CATII-H-14154A.jpg,15,Unlabeled 
CATII-H-61825A.jpg,3,Unlabeled 
CATII-H-30281A.jpg,25,Unlabeled 
CATII-H-10361A.jpg,29,Unlabeled 
CATII-H-32256A.jpg,28,Unlabeled 
CATII-H-35517A.jpg,29,Unlabeled 
CATII-H-33782A.jpg,32,Unlabeled 
CATII-H-55405A.jpg,2,Unlabeled 
CATII-H-46693A.jpg,14,Unlabeled 
CATII-H-41224A.jpg,6,Unlabeled 
CATII-H-36462A.jpg,9,Unlabeled 
CATII-H-32764A.jpg,35,Unlabeled 
CATII-H-61457A.jpg,8,Unlabeled 
CATII-H-33785A.jpg,31,Unlabeled 
CATII-H-35601A.jpg,19,Unlabeled 
CATII-H-30007A.jpg,11,Unlabeled 
CATII-H-29827A.jpg,3,Unlabeled 
CATII-H-30993A.jpg,24,Unlabeled 
CATII-H-32300A.jpg,2,Unlabeled 
CATII-H-30712A.jpg,2,Unlabeled 
CATII-H-30477A.jpg,23,Unlabeled 
CATII-H-13985A.jpg,28,Unlabeled 
CATII-H-38762A.jpg,28,Unlabeled 
CATII-H-32690A.jpg,30,Unlabeled 
CATII-H-24574A.jpg,7,Unlabeled 
CATII-H-32959A.jpg,29,Unlabeled 
CATII-H-32083A.jpg,14,Unlabeled 
CATII-H-30932A.jpg,16,Unlabeled 
CATII-H-34293A.jpg,13,Unlabeled 
CATII-H-43382A.jpg,11,Unlabeled 
CATII-H-36673A.jpg,12,Unlabeled 
CATII-H-24943A.jpg,16,Unlabeled 
CATII-H-47291A.jpg,20,Unlabeled 
CATII-H-29599A.jpg,27,Unlabeled 
CATII-H-46680A.jpg,14,Unlabeled 
CATII-H-24880A.jpg,28,Unlabeled 
CATII-H-27451A.jpg,23,Unlabeled 
CATII-H-09455A.jpg,35,Unlabeled 
CATII-H-46880A.jpg,14,Unlabeled 
CATII-H-05129A.jpg,28,Unlabeled 
CATII-H-41505A.jpg,34,Unlabeled 
CATII-H-46906A.jpg,14,Unlabeled 
CATII-H-46732A.jpg,22,Unlabeled 
CATII-H-61144A.jpg,34,Unlabeled 
CATII-H-32203A.jpg,13,Unlabeled 
CATII-H-32134A.jpg,4,Unlabeled 
CATII-H-33036A.jpg,23,Unlabeled 
CATII-H-47073A.jpg,29,Unlabeled 
CATII-H-34386A.jpg,21,Unlabeled 
CATII-H-33905A.jpg,31,Unlabeled 
CATII-H-32128A.jpg,24,Unlabeled 
CATII-H-31375A.jpg,14,Unlabeled 
CATII-H-32170A.jpg,24,Unlabeled 
CATII-H-24911A.jpg,10,Unlabeled 
CATII-H-25556A.jpg,12,Unlabeled 
CATII-H-30276A.jpg,31,Unlabeled 
CATII-H-34803A.jpg,35,Unlabeled 
CATII-H-30840A.jpg,11,Unlabeled 
CATII-H-33522A.jpg,12,Unlabeled 
CATII-H-46381A.jpg,7,Unlabeled 
CATII-H-62484A.jpg,17,Unlabeled 
CATII-H-61493A.jpg,20,Unlabeled 
CATII-H-51954A.jpg,21,Unlabeled 
CATII-H-32619A.jpg,19,Unlabeled 
CATII-H-30815A.jpg,7,Unlabeled 
CATII-H-32777A.jpg,28,Unlabeled 
CATII-H-34608A.jpg,3,Unlabeled 
CATII-H-33554A.jpg,28,Unlabeled 
CATII-H-30051A.jpg,31,Unlabeled 
CATII-H-28366A.jpg,21,Unlabeled 
CATII-H-34360A.jpg,23,Unlabeled 
CATII-H-31788A.jpg,13,Unlabeled 
CATII-H-58943A.jpg,34,Unlabeled 
CATII-H-31626A.jpg,21,Unlabeled 
CATII-H-36194A.jpg,28,Unlabeled 
CATII-H-32176A.jpg,13,Unlabeled 
CATII-H-33694A.jpg,8,Unlabeled 
CATII-H-25585A.jpg,23,Unlabeled 
CATII-H-37523A.jpg,24,Unlabeled 
CATII-H-32200A.jpg,31,Unlabeled 
CATII-H-31437A.jpg,9,Unlabeled 
CATII-H-30648A.jpg,16,Unlabeled 
CATII-H-61137A.jpg,29,Unlabeled 
CATII-H-32762A.jpg,15,Unlabeled 
CATII-H-50739A.jpg,16,Unlabeled 
CATII-H-25590A.jpg,28,Unlabeled 
CATII-H-46434A.jpg,28,Unlabeled 
CATII-H-26046A.jpg,30,Unlabeled 
CATII-H-37994A.jpg,6,Unlabeled 
CATII-H-55271A.jpg,8,Unlabeled 
CATII-H-39509A.jpg,34,Unlabeled 
CATII-H-47848A.jpg,23,Unlabeled 
CATII-H-30157A.jpg,6,Unlabeled 
CATII-H-61462A.jpg,31,Unlabeled 
CATII-H-30371A.jpg,28,Unlabeled 
CATII-H-61437A.jpg,28,Unlabeled 
CATII-H-47980A.jpg,9,Unlabeled 
CATII-H-30316A.jpg,14,Unlabeled 
CATII-H-27339A.jpg,29,Unlabeled 
CATII-H-33675A.jpg,10,Unlabeled 
CATII-H-32655A.jpg,15,Unlabeled 
CATII-H-30149A.jpg,34,Unlabeled 
CATII-H-46676A.jpg,16,Unlabeled 
CATII-H-30173A.jpg,27,Unlabeled 
CATII-H-34190A.jpg,13,Unlabeled 
CATII-H-30859A.jpg,25,Unlabeled 
CATII-H-48219A.jpg,28,Unlabeled 
CATII-H-62821A.jpg,6,Unlabeled 
CATII-H-48335A.jpg,17,Unlabeled 
CATII-H-61818A.jpg,9,Unlabeled 
CATII-H-33070A.jpg,2,Unlabeled 
CATII-H-07503A.jpg,23,Unlabeled 
CATII-H-34552A.jpg,32,Unlabeled 
CATII-H-34069A.jpg,34,Unlabeled 
CATII-H-32561A.jpg,33,Unlabeled 
CATII-H-41999A.jpg,28,Unlabeled 
CATII-H-52409A.jpg,12,Unlabeled 
CATII-H-40418A.jpg,6,Unlabeled 
CATII-H-47825A.jpg,10,Unlabeled 
CATII-H-37905A.jpg,19,Unlabeled 
CATII-H-48193A.jpg,33,Unlabeled 
CATII-H-24619A.jpg,12,Unlabeled 
CATII-H-34585A.jpg,26,Unlabeled 
CATII-H-24816A.jpg,16,Unlabeled 
CATII-H-44945A.jpg,24,Unlabeled 
CATII-H-30450A.jpg,35,Unlabeled 
CATII-H-32671A.jpg,10,Unlabeled 
CATII-H-06131A.jpg,32,Unlabeled 
CATII-H-46679A.jpg,26,Unlabeled 
CATII-H-09290A.jpg,32,Unlabeled 
CATII-H-37690A.jpg,15,Unlabeled 
CATII-H-33288A.jpg,9,Unlabeled 
CATII-H-29419A.jpg,3,Unlabeled 
CATII-H-34311A.jpg,29,Unlabeled 
CATII-H-29671A.jpg,25,Unlabeled 
CATII-H-48036A.jpg,29,Unlabeled 
CATII-H-33266A.jpg,3,Unlabeled 
CATII-H-29661A.jpg,28,Unlabeled 
CATII-H-30178A.jpg,30,Unlabeled 
CATII-H-16539A.jpg,27,Unlabeled 
CATII-H-48053A.jpg,9,Unlabeled 
CATII-H-48025A.jpg,16,Unlabeled 
CATII-H-33061A.jpg,26,Unlabeled 
CATII-H-47783A.jpg,9,Unlabeled 
CATII-H-49124A.jpg,14,Unlabeled 
CATII-H-32122A.jpg,21,Unlabeled 
CATII-H-29799A.jpg,2,Unlabeled 
CATII-H-48001A.jpg,29,Unlabeled 
CATII-H-47009A.jpg,14,Unlabeled 
CATII-H-17639A.jpg,11,Unlabeled 
CATII-H-43372A.jpg,29,Unlabeled 
CATII-H-60897A.jpg,28,Unlabeled 
CATII-H-47993A.jpg,35,Unlabeled 
CATII-H-41922A.jpg,21,Unlabeled 
CATII-H-46540A.jpg,13,Unlabeled 
CATII-H-24638A.jpg,27,Unlabeled 
CATII-H-33566A.jpg,30,Unlabeled 
CATII-H-32046A.jpg,14,Unlabeled 
CATII-H-34460A.jpg,23,Unlabeled 
CATII-H-25012A.jpg,27,Unlabeled 
CATII-H-34264A.jpg,14,Unlabeled 
CATII-H-31491A.jpg,17,Unlabeled 
CATII-H-29606A.jpg,23,Unlabeled 
CATII-H-46861A.jpg,14,Unlabeled 
CATII-H-46307A.jpg,35,Unlabeled 
CATII-H-38294A.jpg,17,Unlabeled 
CATII-H-47585A.jpg,25,Unlabeled 
CATII-H-41165A.jpg,11,Unlabeled 
CATII-H-38601A.jpg,26,Unlabeled 
CATII-H-30085A.jpg,32,Unlabeled 
CATII-H-26449A.jpg,21,Unlabeled 
CATII-H-34483A.jpg,27,Unlabeled 
CATII-H-39685A.jpg,34,Unlabeled 
CATII-H-47474A.jpg,2,Unlabeled 
CATII-H-33248A.jpg,30,Unlabeled 
CATII-H-47053A.jpg,17,Unlabeled 
CATII-H-43662A.jpg,12,Unlabeled 
CATII-H-37247A.jpg,12,Unlabeled 
CATII-H-30925A.jpg,32,Unlabeled 
CATII-H-32684A.jpg,28,Unlabeled 
CATII-H-47559A.jpg,23,Unlabeled 
CATII-H-38269A.jpg,4,Unlabeled 
CATII-H-31988A.jpg,20,Unlabeled 
CATII-H-32035A.jpg,17,Unlabeled 
CATII-H-29245A.jpg,9,Unlabeled 
CATII-H-38067A.jpg,23,Unlabeled 
CATII-H-29312A.jpg,29,Unlabeled 
CATII-H-30345A.jpg,26,Unlabeled 
CATII-H-32021A.jpg,34,Unlabeled 
CATII-H-34561A.jpg,7,Unlabeled 
CATII-H-33813A.jpg,10,Unlabeled 
CATII-H-33334A.jpg,26,Unlabeled 
CATII-H-36273A.jpg,33,Unlabeled 
CATII-H-38529A.jpg,36,Unlabeled 
CATII-H-61426A.jpg,34,Unlabeled 
CATII-H-47697A.jpg,16,Unlabeled 
CATII-H-32013A.jpg,14,Unlabeled 
CATII-H-32197A.jpg,26,Unlabeled 
CATII-H-47977A.jpg,6,Unlabeled 
CATII-H-33453A.jpg,29,Unlabeled 
CATII-H-56576A.jpg,27,Unlabeled 
CATII-H-46337A.jpg,15,Unlabeled 
CATII-H-45035A.jpg,8,Unlabeled 
CATII-H-25015A.jpg,27,Unlabeled 
CATII-H-33705A.jpg,30,Unlabeled 
CATII-H-30891A.jpg,26,Unlabeled 
CATII-H-34107A.jpg,14,Unlabeled 
CATII-H-34397A.jpg,14,Unlabeled 
CATII-H-35797A.jpg,25,Unlabeled 
CATII-H-29509A.jpg,9,Unlabeled 
CATII-H-31484A.jpg,34,Unlabeled 
CATII-H-46443A.jpg,16,Unlabeled 
CATII-H-30570A.jpg,30,Unlabeled 
CATII-H-32303A.jpg,2,Unlabeled 
CATII-H-46784A.jpg,25,Unlabeled 
CATII-H-35038A.jpg,23,Unlabeled 
CATII-H-46642A.jpg,19,Unlabeled 
CATII-H-34216A.jpg,28,Unlabeled 
CATII-H-29705A.jpg,35,Unlabeled 
CATII-H-29550A.jpg,3,Unlabeled 
CATII-H-40857A.jpg,23,Unlabeled 
CATII-H-37556A.jpg,25,Unlabeled 
CATII-H-46706A.jpg,20,Unlabeled 
CATII-H-61427A.jpg,28,Unlabeled 
CATII-H-46330A.jpg,32,Unlabeled 
CATII-H-33399A.jpg,13,Unlabeled 
CATII-H-32292A.jpg,14,Unlabeled 
CATII-H-30785A.jpg,17,Unlabeled 
CATII-H-25420A.jpg,17,Unlabeled 
CATII-H-33347A.jpg,32,Unlabeled 
CATII-H-47399A.jpg,29,Unlabeled 
CATII-H-39751A.jpg,9,Unlabeled 
CATII-H-29769A.jpg,9,Unlabeled 
CATII-H-26645A.jpg,23,Unlabeled 
CATII-H-47147A.jpg,19,Unlabeled 
CATII-H-29726A.jpg,13,Unlabeled 
CATII-H-64120A.jpg,10,Unlabeled 
CATII-H-30961A.jpg,9,Unlabeled 
CATII-H-31655A.jpg,23,Unlabeled 
CATII-H-46405A.jpg,25,Unlabeled 
CATII-H-35064A.jpg,7,Unlabeled 
CATII-H-33362A.jpg,21,Unlabeled 
CATII-H-37869A.jpg,1,Unlabeled 
CATII-H-56452A.jpg,28,Unlabeled 
CATII-H-32965A.jpg,17,Unlabeled 
CATII-H-47152A.jpg,23,Unlabeled 
CATII-H-33101A.jpg,10,Unlabeled 
CATII-H-29488A.jpg,12,Unlabeled 
CATII-H-59458A.jpg,26,Unlabeled 
CATII-H-32779A.jpg,28,Unlabeled 
CATII-H-30475A.jpg,16,Unlabeled 
CATII-H-30949A.jpg,32,Unlabeled 
CATII-H-35336A.jpg,27,Unlabeled 
CATII-H-30115A.jpg,14,Unlabeled 
CATII-H-38878A.jpg,30,Unlabeled 
CATII-H-30458A.jpg,25,Unlabeled 
CATII-H-31556A.jpg,26,Unlabeled 
CATII-H-34022A.jpg,35,Unlabeled 
CATII-H-33213A.jpg,21,Unlabeled 
CATII-H-40400A.jpg,31,Unlabeled 
CATII-H-25100A.jpg,10,Unlabeled 
CATII-H-46589A.jpg,21,Unlabeled 
CATII-H-34082A.jpg,35,Unlabeled 
CATII-H-61151A.jpg,28,Unlabeled 
CATII-H-32169A.jpg,13,Unlabeled 
CATII-H-32162A.jpg,6,Unlabeled 
CATII-H-34028A.jpg,19,Unlabeled 
CATII-H-10321A.jpg,28,Unlabeled 
CATII-H-32204A.jpg,16,Unlabeled 
CATII-H-46882A.jpg,32,Unlabeled 
CATII-H-48211A.jpg,16,Unlabeled 
CATII-H-64664A.jpg,6,Unlabeled 
CATII-H-61804A.jpg,17,Unlabeled 
CATII-H-31952A.jpg,36,Unlabeled 
CATII-H-30219A.jpg,10,Unlabeled 
CATII-H-29902A.jpg,24,Unlabeled 
CATII-H-25164A.jpg,22,Unlabeled 
CATII-H-61831A.jpg,10,Unlabeled 
CATII-H-25973A.jpg,29,Unlabeled 
CATII-H-20976A.jpg,6,L
CATII-H-19237A.jpg,28,L
CATII-H-11097A.jpg,11,L
CATII-H-06407A.jpg,5,L
CATII-H-15646A.jpg,6,L
CATII-H-21072A.jpg,6,L
CATII-H-19061A.jpg,5,L
CATII-H-07769A.jpg,11,L
CATII-H-18032A.jpg,6,L
CATII-H-06613A.jpg,11,L
CATII-H-18039A.jpg,6,L
CATII-H-16657A.jpg,5,L
CATII-H-05775A.jpg,5,L
CATII-H-09549A.jpg,6,L
CATII-H-01155A.jpg,5,L
CATII-H-17645A.jpg,6,L
CATII-H-06961A.jpg,6,L
CATII-H-06540A.jpg,11,L
CATII-H-15210A.jpg,6,L
CATII-H-20676A.jpg,6,L
CATII-H-16201A.jpg,5,L
CATII-H-15229A.jpg,12,Q
CATII-H-02854A.jpg,34,Q
CATII-H-14088A.jpg,29,Q
CATII-H-16523A.jpg,29,Q
CATII-H-07902A.jpg,34,Q
CATII-H-10835A.jpg,34,Q
CATII-H-09687A.jpg,27,Q
CATII-H-04794A.jpg,9,V?
CATII-H-04771A.jpg,8,F
CATII-H-07985A.jpg,8,F
CATII-H-15079A.jpg,10,F
CATII-H-13066A.jpg,8,F
CATII-H-21976A.jpg,7,F
CATII-H-08429A.jpg,7,F
CATII-H-13935A.jpg,10,F
CATII-H-22305A.jpg,8,F
CATII-H-00985A.jpg,7,F
CATII-H-11833A.jpg,8,F
CATII-H-08006A.jpg,10,F
CATII-H-14977A.jpg,10,F
CATII-H-12315A.jpg,8,F
CATII-H-22779A.jpg,10,F
CATII-H-16439A.jpg,7,F
CATII-H-01726A.jpg,7,F
CATII-H-23962A.jpg,7,F
CATII-H-05962A.jpg,8,F
CATII-H-05618A.jpg,8,F
CATII-H-16051A.jpg,12,F
CATII-H-14878A.jpg,10,F
CATII-H-05085A.jpg,10,F
CATII-H-12514A.jpg,34,N
CATII-H-17317A.jpg,29,N
CATII-H-07721A.jpg,27,N
CATII-H-17181A.jpg,27,N
CATII-H-18806A.jpg,29,N
CATII-H-14652A.jpg,9,N
CATII-H-12884A.jpg,7,N
CATII-H-15255A.jpg,10,N
CATII-H-05788A.jpg,29,N
CATII-H-24263A.jpg,29,N
CATII-H-11159A.jpg,12,N
CATII-H-06274A.jpg,34,N
CATII-H-09130A.jpg,10,N
CATII-H-09029A.jpg,16,Hb
CATII-H-13925A.jpg,7,E
CATII-H-18893A.jpg,9,E
CATII-H-00063A.jpg,29,E
CATII-H-08178A.jpg,27,E
CATII-H-08078A.jpg,27,E
CATII-H-16397A.jpg,29,E
CATII-H-15472A.jpg,9,E
CATII-H-10211A.jpg,29,E
CATII-H-01826A.jpg,10,E
CATII-H-18078A.jpg,29,E
CATII-H-15463A.jpg,9,E
CATII-H-05599A.jpg,34,E
CATII-H-04452A.jpg,1,A
CATII-H-23256A.jpg,1,A
CATII-H-05226A.jpg,32,A
CATII-H-08468A.jpg,32,A
CATII-H-14769A.jpg,2,A
CATII-H-13023A.jpg,2,A
CATII-H-07409A.jpg,2,A
CATII-H-13067A.jpg,1,A
CATII-H-24257A.jpg,1,A
CATII-H-09610A.jpg,32,A
CATII-H-00532A.jpg,2,A
CATII-H-15820A.jpg,2,A
CATII-H-13484A.jpg,1,A
CATII-H-15230A.jpg,2,A
CATII-H-08904A.jpg,2,A
CATII-H-09115A.jpg,2,A
CATII-H-09788A.jpg,2,A
CATII-H-14584A.jpg,2,A
CATII-H-11895A.jpg,2,A
CATII-H-08711A.jpg,1,A
CATII-H-00188A.jpg,32,A
CATII-H-06044A.jpg,2,A
CATII-H-09266A.jpg,32,A
CATII-H-23066A.jpg,2,A
CATII-H-05270A.jpg,2,A
CATII-H-07982A.jpg,32,A
CATII-H-08930A.jpg,2,A
CATII-H-09830A.jpg,2,A
CATII-H-15560A.jpg,1,A
CATII-H-19682A.jpg,2,A
CATII-H-09434A.jpg,1,A
CATII-H-07175A.jpg,1,A
CATII-H-15301A.jpg,2,A
CATII-H-04456A.jpg,2,A
CATII-H-15570A.jpg,32,A
CATII-H-06396A.jpg,1,A
CATII-H-14583A.jpg,9,YC
CATII-H-15475A.jpg,10,YC
CATII-H-22825A.jpg,10,YC
CATII-H-09446A.jpg,33,J
CATII-H-17676A.jpg,32,J
CATII-H-13716A.jpg,32,J
CATII-H-17724A.jpg,32,J
CATII-H-04709A.jpg,14,C
CATII-H-00120A.jpg,35,C
CATII-H-12253A.jpg,33,C
CATII-H-06287A.jpg,33,C
CATII-H-15876A.jpg,33,C
CATII-H-15479A.jpg,14,C
CATII-H-18669A.jpg,33,C
CATII-H-04565A.jpg,14,C
CATII-H-24498A.jpg,35,C
CATII-H-09766A.jpg,35,C
CATII-H-12951A.jpg,34,C
CATII-H-08266A.jpg,35,C
CATII-H-07854A.jpg,14,C
CATII-H-16675A.jpg,14,C
CATII-H-05182A.jpg,26,X?
CATII-H-17059A.jpg,16,Y
CATII-H-07850A.jpg,27,Y
CATII-H-05557A.jpg,35,Y
CATII-H-10161A.jpg,19,K
CATII-H-18246A.jpg,15,K
CATII-H-06896A.jpg,15,K
CATII-H-19413A.jpg,15,K
CATII-H-16138A.jpg,19,K
CATII-H-08461A.jpg,16,K
CATII-H-11180A.jpg,15,K
CATII-H-14064A.jpg,15,K
CATII-H-11233A.jpg,19,K
CATII-H-01194A.jpg,15,K
CATII-H-11241A.jpg,19,K
CATII-H-18931A.jpg,15,K
CATII-H-15164A.jpg,19,K
CATII-H-10903A.jpg,19,K
CATII-H-11343A.jpg,19,K
CATII-H-14835A.jpg,18,K
CATII-H-18932A.jpg,19,K
CATII-H-06928A.jpg,15,K
CATII-H-14819A.jpg,19,K
CATII-H-08989A.jpg,15,K
CATII-H-05729A.jpg,18,K
CATII-H-17515A.jpg,19,K
CATII-H-11061A.jpg,17,K
CATII-H-05912A.jpg,19,K
CATII-H-19449A.jpg,19,K
CATII-H-06596A.jpg,19,K
CATII-H-12316A.jpg,15,K
CATII-H-17395A.jpg,15,K
CATII-H-08493A.jpg,19,K
CATII-H-11334A.jpg,15,K
CATII-H-18666A.jpg,15,K
CATII-H-14050A.jpg,15,K
CATII-H-17023A.jpg,15,K
CATII-H-00538A.jpg,19,K
CATII-H-11822A.jpg,15,K
CATII-H-10257A.jpg,19,K
CATII-H-17225A.jpg,19,K
CATII-H-21267A.jpg,19,K
CATII-H-19432A.jpg,15,K
CATII-H-08343A.jpg,19,K
CATII-H-14456A.jpg,15,K
CATII-H-06228A.jpg,9,M
CATII-H-16034A.jpg,17,M
CATII-H-01150A.jpg,17,M
CATII-H-15120A.jpg,10,M
CATII-H-16093A.jpg,9,M
CATII-H-05848A.jpg,32,TA
CATII-H-13109A.jpg,26,YB
CATII-H-22363A.jpg,29,YB
CATII-H-07859A.jpg,6,P?
CATII-H-07916A.jpg,10,P?
CATII-H-19437A.jpg,3,R
CATII-H-16330A.jpg,4,R
CATII-H-07992A.jpg,3,R
CATII-H-04895A.jpg,4,R
CATII-H-16600A.jpg,3,R
CATII-H-03075A.jpg,4,R
CATII-H-08340A.jpg,4,R
CATII-H-06857A.jpg,4,R
CATII-H-15952A.jpg,27,R
CATII-H-24016A.jpg,3,R
CATII-H-08647A.jpg,3,R
CATII-H-16506A.jpg,4,R
CATII-H-14327A.jpg,4,R
CATII-H-14502A.jpg,4,R
CATII-H-23706A.jpg,4,R
CATII-H-05007A.jpg,3,R
CATII-H-19404A.jpg,4,R
CATII-H-09609A.jpg,27,R
CATII-H-13906A.jpg,4,R
CATII-H-14599A.jpg,3,R
CATII-H-17564A.jpg,4,R
CATII-H-03234A.jpg,3,R
CATII-H-16470A.jpg,3,R
CATII-H-17517A.jpg,3,R
CATII-H-11050A.jpg,3,R
CATII-H-18233A.jpg,3,R
CATII-H-06951A.jpg,3,R
CATII-H-05818A.jpg,3,R
CATII-H-08626A.jpg,4,R
CATII-H-16269A.jpg,4,R
CATII-H-15268A.jpg,4,R
CATII-H-08485A.jpg,28,L?
CATII-H-07869A.jpg,12,L?
CATII-H-08392A.jpg,12,L?
CATII-H-09695A.jpg,28,N?
CATII-H-19188A.jpg,27,N?
CATII-H-10742A.jpg,27,N?
CATII-H-08560A.jpg,36,B?
CATII-H-09361A.jpg,30,B?
CATII-H-06569A.jpg,28,B?
CATII-H-09739A.jpg,31,B?
CATII-H-08352A.jpg,30,B?
CATII-H-09589A.jpg,34,B?
CATII-H-07691A.jpg,30,B?
CATII-H-06049A.jpg,16,B?
CATII-H-06632A.jpg,30,B?
CATII-H-09564A.jpg,30,B?
CATII-H-09393A.jpg,28,B?
CATII-H-06205A.jpg,16,B?
CATII-H-09337A.jpg,30,B?
CATII-H-01081A.jpg,31,B?
CATII-H-09339A.jpg,30,B?
CATII-H-04673A.jpg,30,B?
CATII-H-00917A.jpg,31,B?
CATII-H-08766A.jpg,30,B?
CATII-H-06195A.jpg,31,B?
CATII-H-10998A.jpg,9,F2
CATII-H-16541A.jpg,7,F2
CATII-H-15034A.jpg,10,F2
CATII-H-23359A.jpg,27,F2
CATII-H-23098A.jpg,7,F2
CATII-H-12010A.jpg,28,F2
CATII-H-12905A.jpg,7,F2
CATII-H-18420A.jpg,33,AS
CATII-H-12275A.jpg,33,AS
CATII-H-14350A.jpg,21,W
CATII-H-13275A.jpg,22,W
CATII-H-11226A.jpg,21,W
CATII-H-13465A.jpg,21,W
CATII-H-15435A.jpg,22,W
CATII-H-16582A.jpg,21,W
CATII-H-05587A.jpg,22,W
CATII-H-18196A.jpg,22,W
CATII-H-12824A.jpg,22,W
CATII-H-06161A.jpg,21,W
CATII-H-11700A.jpg,21,W
CATII-H-18014A.jpg,28,W
CATII-H-24274A.jpg,21,W
CATII-H-06802A.jpg,22,W
CATII-H-12097A.jpg,21,W
CATII-H-11151A.jpg,22,W
CATII-H-14676A.jpg,21,W
CATII-H-06462A.jpg,21,W
CATII-H-14020A.jpg,21,W
CATII-H-07258A.jpg,22,W
CATII-H-18846A.jpg,22,W
CATII-H-16480A.jpg,21,W
CATII-H-15719A.jpg,22,W
CATII-H-10995A.jpg,22,W
CATII-H-12926A.jpg,6,P
CATII-H-16438A.jpg,34,P
CATII-H-05554A.jpg,28,P
CATII-H-14933A.jpg,34,P
CATII-H-18339A.jpg,12,P
CATII-H-10194A.jpg,34,P
CATII-H-17083A.jpg,34,P
CATII-H-18734A.jpg,6,P
CATII-H-02699A.jpg,12,P
CATII-H-10436A.jpg,6,P
CATII-H-24261A.jpg,32,P
CATII-H-14222A.jpg,32,P
CATII-H-23906A.jpg,12,P
CATII-H-18355A.jpg,12,P
CATII-H-13848A.jpg,12,P
CATII-H-07289A.jpg,14,I?
CATII-H-08331A.jpg,33,C?
CATII-H-18158A.jpg,10,Q?
CATII-H-24291A.jpg,34,Q?
CATII-H-04303A.jpg,28,Q?
CATII-H-08523A.jpg,21,W?
CATII-H-04264A.jpg,21,W?
CATII-H-05379A.jpg,33,W?
CATII-H-05704A.jpg,21,W?
CATII-H-04800A.jpg,33,W?
CATII-H-04424A.jpg,28,W?
CATII-H-05070A.jpg,21,W?
CATII-H-05076A.jpg,22,W?
CATII-H-04508A.jpg,28,W?
CATII-H-03621A.jpg,35,W?
CATII-H-08434A.jpg,33,W?
CATII-H-08087A.jpg,35,W?
CATII-H-09671A.jpg,21,W?
CATII-H-04332A.jpg,16,W?
CATII-H-13795A.jpg,32,Z
CATII-H-11259A.jpg,32,Z
CATII-H-14420A.jpg,23,O
CATII-H-18852A.jpg,24,O
CATII-H-05237A.jpg,23,O
CATII-H-11704A.jpg,24,O
CATII-H-21282A.jpg,24,O
CATII-H-16253A.jpg,23,O
CATII-H-17377A.jpg,23,O
CATII-H-11076A.jpg,24,O
CATII-H-18857A.jpg,24,O
CATII-H-18192A.jpg,24,O
CATII-H-20307A.jpg,23,O
CATII-H-15046A.jpg,24,O
CATII-H-05464A.jpg,23,O
CATII-H-18291A.jpg,23,O
CATII-H-23839A.jpg,23,O
CATII-H-11326A.jpg,16,O
CATII-H-24054A.jpg,34,O
CATII-H-06074A.jpg,23,O
CATII-H-12254A.jpg,23,O
CATII-H-14290A.jpg,24,O
CATII-H-11176A.jpg,23,O
CATII-H-14707A.jpg,23,O
CATII-H-05982A.jpg,24,O
CATII-H-15607A.jpg,23,O
CATII-H-14196A.jpg,23,O
CATII-H-10074A.jpg,24,O
CATII-H-24065A.jpg,34,O
CATII-H-16505A.jpg,24,O
CATII-H-17584A.jpg,23,O
CATII-H-02057A.jpg,24,O
CATII-H-08571A.jpg,24,O
CATII-H-08414A.jpg,23,O
CATII-H-13851A.jpg,24,O
CATII-H-04655A.jpg,23,O
CATII-H-18220A.jpg,24,O
CATII-H-10143A.jpg,24,O
CATII-H-22038A.jpg,23,O
CATII-H-16531A.jpg,23,O
CATII-H-14521A.jpg,24,O
CATII-H-23108A.jpg,23,O
CATII-H-17655A.jpg,24,O
CATII-H-18278A.jpg,23,O
CATII-H-08562A.jpg,15,Ha
CATII-H-10000A.jpg,15,K?
CATII-H-07671A.jpg,15,K?
CATII-H-00634A.jpg,28,K?
CATII-H-06060A.jpg,35,K?
CATII-H-06085A.jpg,15,K?
CATII-H-05077A.jpg,19,K?
CATII-H-07132A.jpg,16,K?
CATII-H-08439A.jpg,16,K?
CATII-H-04826A.jpg,15,K?
CATII-H-09270A.jpg,19,K?
CATII-H-06079A.jpg,15,K?
CATII-H-06335A.jpg,15,K?
CATII-H-05595A.jpg,15,K?
CATII-H-09604A.jpg,19,K?
CATII-H-04291A.jpg,16,K?
CATII-H-03876A.jpg,24,O?
CATII-H-10005A.jpg,9,O?
CATII-H-08217A.jpg,23,O?
CATII-H-04904A.jpg,23,O?
CATII-H-06146A.jpg,23,O?
CATII-H-07690A.jpg,28,O?
CATII-H-00273A.jpg,16,O?
CATII-H-04998A.jpg,27,O?
CATII-H-08518A.jpg,16,O?
CATII-H-07683A.jpg,28,O?
CATII-H-05468A.jpg,27,T
CATII-H-04477A.jpg,28,T
CATII-H-19284A.jpg,27,T
CATII-H-04917A.jpg,32,T
CATII-H-05568A.jpg,27,T
CATII-H-05297A.jpg,27,T
